{
   "loanAccount":{
      "id":"Custom_ID",
      "accountHolderKey":"40288a13437b71d201437b87aa6300e1",
      "accountHolderType":"CLIENT",
      "creationDate":"2014-01-13T15:00:11+0200",
      "lastModifiedDate":"2014-01-13T15:00:11+0200",
      "accountState":"PENDING_APPROVAL",
      "productTypeKey":"40288a13437b71d201437b87af7d033f",
      "loanName":"Agriculture Loan",
      "loanAmount":"950",
      "principalDue":"0",
      "principalPaid":"0",
      "principalBalance":"0",
      "interestDue":"0",
      "interestPaid":"0",
      "interestBalance":"0",
      "feesDue":"0",
      "feesPaid":"0",
      "feesBalance":"0",
      "penaltyDue":"0",
      "penaltyPaid":"0",
      "penaltyBalance":"0",
      "scheduleDueDatesMethod":"INTERVAL",
      "repaymentPeriodCount":1,
      "repaymentPeriodUnit":"MONTHS",
      "repaymentInstallments":5,
      "gracePeriod":0,
      "gracePeriodType":"NONE",
      "interestRate":"2.5",
      "interestChargeFrequency":"EVERY_FOUR_WEEKS",
      "interestCalculationMethod":"DECLINING_BALANCE",
      "repaymentScheduleMethod":"FIXED",
      "paymentMethod":"HORIZONTAL",
      "interestApplicationMethod":"ON_DISBURSEMENT",
      "notes":"some_notes",
      "principalRepaymentInterval":1,
      "interestRateSource":"FIXED_INTEREST_RATE",
      "interestAdjustment":"0",
      "accruedInterest":"0",
      "arrearsTolerancePeriod":10,
      "guarantees":[
         {
            "guarantorKey":"8a80806852f38c860152f38de0ad0019",
            "amount":"950",
            "guarantorType":"GUARANTOR",
            "customFieldValues":[
               {
                  "CustomFieldID":"Employement_status",
                  "value":"Self-employed"
               }
            ]
         }
      ],
      "funds":[
         {
            "guarantorKey":"GUARANTOR_KEY",
            "savingsAccountKey":"SAVINGS_ACC_KEY",
            "amount":"500",
            "interestCommission":"4"
         }
      ]
   },
   "disbursementDetails":{
      "expectedDisbursementDate":"2016-01-08",
      "firstRepaymentDate":"2016-02-08",
      "transactionDetails":{
         "transactionChannel":{
            "id":"RECEIPT",
            "encodedKey":"8a8080855281ef57015281ef9bc20436"
         },
         "receiptNumber":"1146",
         "bankNumber":"bank1146"
      },
      "fees":[
         {
            "fee":{
               "encodedKey":"8a8080855283305201528369d0d3001c"
            }
         },
         {
            "fee":{
               "encodedKey":"8a8080855283305201528369d0d3001b"
            },
            "amount":"10"
         },
         {
            "fee":{
               "encodedKey":"8a808085528330520152836c5950002a"
            },
            "amount":"55"
         }
      ]
   },
   "customInformation":[
      {
         "value":"None",
         "customFieldID":"Special_Installements_Loan_Accounts"
      },
      {
         "value":"2",
         "customFieldID":"Family_Members_Loan_Accounts"
      }
   ]
}